CODLIBRO;NOMBRE
308338;LIBRO 1
388670;LIBRO 2
362668;LIBRO 3
641266;LIBRO 4
143829;LIBRO 5
374757;LIBRO 6
204283;LIBRO 7
432049;LIBRO 8
346344;LIBRO 9
284231;LIBRO 10
357138;LIBRO 11
100153;LIBRO 12
352284;LIBRO 13
633902;LIBRO 14
116581;LIBRO 15
270098;LIBRO 16
232334;LIBRO 17
541349;LIBRO 18
633657;LIBRO 19
520556;LIBRO 20
506681;LIBRO 21
628403;LIBRO 22
515849;LIBRO 23