id_dpto;Nombre Departamento
1;Antioquia
2;Arauca
3;Atlántico
4;Bolívar
5;Boyacá
6;Caldas
7;Caquetá
8;Casanare
9;Cauca
10;Cesar
11;Chocó
12;Cundinamarca
13;Córdoba
14;Guainía
15;Guaviare
16;Huila
17;La Guajira
18;Magdalena
19;Meta
20;Nariño
21;Norte de Santander
22;Putumayo
23;Quindío
24;Risaralda
25;San Andrés y Providencia
26;Santander
27;Sucre
28;Tolima
29;Valle del Cauca
30;Vaupés
31;Vichada
100;Amazonas
