id_dpto;id_municipio;nombreMunicipio
1;3;Abejorral
1;4;Abriaquí
1;5;Alejandría
2;128;Arauca
2;129;Arauquita
2;130;Cravo Norte
3;135;Baranoa
3;136;Barranquilla
3;137;Campo de la Cruz
4;158;Achí
4;159;Altos del Rosario
4;160;Arenal
5;256;Miraflores
5;257;Mongua
5;258;Monguí
6;328;Aguadas
6;329;Anserma
6;330;Aranzazu
7;355;Albania
7;356;Belén de los Andaquíes
7;357;Cartagena del Chairá
8;371;Aguazul
8;372;Chámeza
8;373;Hato Corozal
9;390;Almaguer
9;391;Argelia
9;392;Balboa
10;432;Aguachica
10;433;Agustín Codazzi
10;434;Astrea
11;457;Acandí
11;458;Alto Baudó
11;459;Bagadó
12;512;El Peñón
12;513;El Rosal
12;514;Facatativá
13;604;Ayapel
13;605;Buenavista
13;606;Canalete
14;634;Inírida
15;635;Calamar
15;636;El Retorno
15;637;Miraflores
16;639;Acevedo
16;640;Agrado
16;641;Aipe
17;676;Albania
17;677;Barrancas
17;678;Dibulla
18;691;Algarrobo
18;692;Aracataca
18;693;Ariguaní
19;722;Acacías
19;723;Barranca de Upía
19;724;Cabuyaro
20;768;El Tablón
20;769;El Tambo
20;770;Francisco Pizarro
21;815;Ábrego
21;816;Arboledas
21;817;Bochalema
22;855;Colón
22;856;Mocoa
22;857;Orito
23;868;Armenia
23;869;Buenavista
23;870;Calarcá
24;880;Apía
24;881;Balboa
24;882;Belén de Umbría
25;894;Providencia y Santa Catalina Islas
25;895;San Andrés
26;896;Aguada
26;897;Albania
26;898;Aratoca
27;983;Buenavista
27;984;Caimito
27;985;Chalán
28;1024;Falán
28;1025;Flandes
28;1026;Fresno
29;1056;Alcalá
29;1057;Andalucía
29;1058;Ansermanuevo
30;1098;Carurú
30;1099;Mitú
30;1100;Taraira
31;1101;Cumaribo
31;1102;La Primavera
31;1103;Puerto Carreño
100;1;Leticia
100;2;Puerto Nariño
